Retirement & Investing,Basic,The Power of Diversification,E*TRADE Securities,0:02:53,"In this 3-minute video, you will learn what diversification is and how you can use it to build your portfolio.",1409983370001,https://cdn.etrade.net/1/20120126.0/prospect/images/videoThumbs/the-power-of-diversification-edu-172-sv.gif
Retirement & Investing,Basic,Top Investing Myths,E*TRADE Securities,0:03:33,"Smart investors don't always follow the crowd. In this free 3-minute video, Pro Market Advisors shows you how several commonly held beliefs could actually be undermining your investing efforts.",1288910854001,https://cdn.etrade.net/1/1d/images/videoThumbs/inv-bas-v-3_myths_oct21.gif
Retirement & Investing,Basic,New to Online Investing,E*TRADE Securities,0:02:55,"See how E*TRADE can help you take control of your investments online. Get a three-minute tour of our most popular features, and learn five time-tested principles for successful investing. Big, expensive broker not required.",1402025643001,https://cdn.etrade.net/1/1d/images/videoThumbs/INV-BAS-V-1_New_to_Online_Investing_3min.gif
Retirement & Investing,Basic,Asset Allocation,E*TRADE Securities,0:05:15,Christine Benz of Morningstar discusses asset allocation and why it is important to an investor's overall portfolio return.,1964265810001,https://i2.ytimg.com/vi/UkX4kKxPZt4/default.jpg
Retirement & Investing,Intermediate,Building a Core and Satellite Portfolio,E*TRADE Securities,0:04:20,Christine Benz of Morningstar explains what a core and satellite portfolio is and the benefits of following this strategy.,1964266909001,https://i2.ytimg.com/vi/AvRMqqSs0n8/default.jpg
Retirement & Investing,Intermediate,Investing for Income,E*TRADE Securities,0:05:08,Cara Esser of Morningstar explains some alternative investment ideas to create income for investors in a low-yield environment.,1964265814001,https://i2.ytimg.com/vi/-RxKSNsZ5PU/default.jpg
Retirement & Investing,Intermediate,Investing in Stagnant Economy,E*TRADE Securities,0:05:27,Scott Burns of Morningstar discusses what types of investments to make when the economy is stagnant.,1964248666001,https://i1.ytimg.com/vi/HOTY0mCkKnU/default.jpg
Trading Ideas,Basic,How to Diversify with ETF's,E*TRADE Securities,0:05:25,"Exchange-traded funds (ETFs) combine some of the best features of both mutual funds and stocks. In this exclusive video, we will explain the basics of ETFs and show you how to diversify with one of today's fastest growing investments.",1294504322001,https://cdn.etrade.net/1/1d/images/videoThumbs/TI-BAS-V-1-exchange-traded-funds.gif
Trading Ideas,Basic,ETF's for Beginners,Pro Market Advisors,0:28:23,ETFs provide long-term investors with a great way to build a diversified portfolio and short-term investors with a unique trading tool. Pro Market Advisors will show you both sides of ETFs and review basic strategies every investor and trader should know.,1397728897001,https://cdn.etrade.net/1/1d/images/videoThumbs/TI-BAS-WS-3_etfs_for_beginners.gif
Trading Ideas,Intermediate,Commodities Investing,E*TRADE Securities,0:04:36,Paul Justice of Morningstar talks about what role commodities should play in an investor's portfolio and how an investor should look to invest in commodities.,1964266914001,https://i3.ytimg.com/vi/vgQ5QHLlfrc/default.jpg
Trading Ideas,Intermediate,Trading and Investing in Gold in Uncertain Times,"Jeffrey Christian, CPM Group",1:17:21,"Gold has had a role in civilizations for 6,000 years as a symbol of wealth and power. Today, gold can play a role in portfolios for investors and traders. Learn the differences between gold ETFs, mining stocks, coins, bullion, and NYSE Liffe US Mini Gold futures.",1413976555001,https://cdn.etrade.net/1/1d/images/videoThumbs/Trading-and-investing-in-gold.gif
Trading Ideas,Basic,Choosing Your Strategy,E*TRADE Securities,0:12:02,"Every trade starts with a strategy, but which one should you choose?  Learn an easy way to build a trading strategy.",1553964672001,https://cdn.etrade.net/1/7d/images/videoThumbs/105x80-choosing-your-strategy.jpg
Trading Ideas,Basic,The Sell Stop Order,E*TRADE Securities,0:02:37,"The Sell Stop Order is a special order type that can help protect your portfolio against losses if stock prices fall.  If you own stock, it's important that you have a plan to manage risk.  The Sell Stop Order is one of several order types you should consider.",2307938260001,https://cdn.etrade.net/1/7d/images/videoThumbs/105x80-sell-stop-order.jpg
Trading Ideas,Basic,The Limit Sell Order,E*TRADE Securities,0:02:27,Buying and selling stocks may be accomplished through a variety of order types.  Conditional Orders are useful tools for both traders and investors.  This video introduces the Limit Sell Order using Johnson & Johnson (ticker: JNJ) as an example.,2307987062001,https://cdn.etrade.net/1/7d/images/videoThumbs/105x80-limit-sell-order.jpg
Trading Ideas,Intermediate,The Contingent Order,E*TRADE Securities,0:02:24,"The best trading decisions are usually made before you get into a trade, while you're thinking clearly.  Unfortunately, too many traders get into a trade before they try to figure out how to manage profits and losses.  Conditional Orders can help you automate your trading decisions so that you are better prepared to manage your trades.  Conditional Orders may be used for risk management as well as profit management to help you reach your trading goals.",2307943404001,https://cdn.etrade.net/1/7d/images/videoThumbs/105x80-contingent-order.jpg
Trading Ideas,Intermediate,Understanding Volatility,E*TRADE Securities,0:15:21,"Volatility represents uncertainty, so how do investors plan for it?  Pro Market Advisors will help you understand your stock and the market in a new way using their simple and clear volatility scoring method.",1547196517001,https://cdn.etrade.net/1/7d/images/videoThumbs/105x80-understanding-volatility.jpg
Trading Ideas,Advanced,Trading with Leverage,E*TRADE Securities,1:01:58,"Trading with leverage requires that you understand the benefits and risks associated with leveraged products like margin, options and leveraged ETFs.",1632258687001,https://cdn.etrade.net/1/7d/images/videoThumbs/105x80-trading-with-leverage.jpg
Trading Ideas,Advanced,Advanced Technical Trading Strategies,E*TRADE Securities,0:50:18,Dan will help you think through what you want from a technical trading strategy and cover key points to consider when combining technical trading techniques.,1427718174001,https://cdn.etrade.net/1/7d/images/videoThumbs/105x80-advanced-tech-trading-strategies.jpg
Protecting Your Portfolio,Basic,Risks to the Forecast,"Sam Stovall, Standard & Poor's",0:46:47,"Many strategists expect the S&P 500 to close the year near 1400 on a 3.5% growth in global GDP and a 17% increase in S&P 500 earnings. But what if the future includes a greater-than-expected pick-up in inflation, sovereign debt defaults, interest rate increases, resulting in much slower-than-projected economic and earnings growth? Listen to Sam Stovall, Chief Investment Strategist of S&P Equity Research, as he discusses what every investor needs to be aware of: ""The Risks to the Forecasts"". ",1414343894001,https://cdn.etrade.net/1/1d/images/videoThumbs/risks-to-the-forecast-EDU-2806-sv-av-wc.gif
Protecting Your Portfolio,Basic,The Top Mistakes Traders Make,E*TRADE Securities,0:02:42,New traders and investors can sometimes make costly mistakes. Rick Swope of The Pro Market Advisors describes the top 5 most-common investing and trading mistakes and gives you some simple advice on how to avoid them.,1294475237001,https://cdn.etrade.net/1/1d/images/videoThumbs/RM-BAS-V-2-top5_mistakes_3min.gif
Protecting Your Portfolio,Basic,How to Protect Your Portfolio,E*TRADE Securities,0:03:15,"The modern approach to investing has shifted from "buy & hold" to "buy & protect". In this free 3-minute video, Pro Market Advisors show you how to manage risk and become a safer investor in just 5 simple steps.",1974282746001,https://cdn.etrade.net/1/7d/images/videoThumbs/105x80-how-to-protect-your-portfolio.jpg
Protecting Your Portfolio,Intermediate,Four Order Types You Can Use to Protect a Position,E*TRADE Securities,0:51:50,"From simple stop orders to more sophisticated conditional orders, there are a variety of order types you can use to protect a position. Join Dave Whitmore, senior strategist at E*TRADE, to learn about stop orders, stop limit orders, trailing stops, hidden stops and conditional orders.",1834273687001,https://cdn.etrade.net/1/7d/images/videoThumbs/105x80-4-order-types.jpg
Protecting Your Portfolio,Intermediate,The Science of Setting Stops,E*TRADE Securities,0:03:56,"Setting stops is important for traders to manage risk and lock in gains, but where do you begin? This session will cover the importance of setting stops to help reach your trading goals.",1409825149001,https://cdn.etrade.net/1/7d/images/videoThumbs/105x80-science-of-setting-stops.jpg
Protecting Your Portfolio,Intermediate,Building a Core & Satellite Portfolio,E*TRADE Securities,0:04:20,Christine Benz of Morningstar explains what a core and satellite portfolio is and the benefits of following this strategy.,1964266909001,https://cdn.etrade.net/1/7d/images/videoThumbs/105x80-core-and-satellite-investing.jpg
Stock Analysis,Basic,Technical Analysis 101,E*TRADE Securities,0:06:58,Learn about the basics of technical analysis and how it may be used to help predict future price movements of a stock.,1397786494001,https://cdn.etrade.net/1/1d/images/videoThumbs/FINAL_TA_1.gif
Stock Analysis,Basic,Fundamental Analysis 101,E*TRADE Securities,0:04:24,This video discusses how to effectively manage the fundamentals of a stock before placing a trade.,1398014940001,https://cdn.etrade.net/1/1d/images/videoThumbs/fundamental_analysis.gif
Stock Analysis,Basic,Basics of Stock Selection,E*TRADE Securities,0:04:36,Selecting stocks for investing and trading should not be a guessing game in today's market. Join us as we review the basics of technical analysis and other stock selection techniques you should know before buying a stock.,1299413071001,https://cdn.etrade.net/1/1d/images/videoThumbs/Basics-of-stock-selection_May30.gif
Stock Analysis,Basic,What to Consider Before Your Next Trade,E*TRADE Securities,0:02:54,"Successful trading starts well before you click 'Buy'. In this 3-minute video , Rick Swope of The Pro Market Advisors tells you exactly what you need to know before you enter your first trade. Stepping onto the trading floor is like going in the lion's den; this video will help you avoid being one of the sheep.",1403635581001,https://cdn.etrade.net/1/1d/images/videoThumbs/SA-BAS-V-4_What2Consider.gif
Stock Analysis,Basic,Evaluating Stocks with EPS,E*TRADE Securities,0:01:25,"EPS, or earnings-per-share, helps you understand the profitability of each company.  Learn how to use EPS in just one minute.",1986787939001,https://cdn.etrade.net/1/7d/images/videoThumbs/105x80-evaluating-stocks-with-EPS.jpg
Stock Analysis,Basic,What is a P/E Ratio?,E*TRADE Securities,0:01:30,"If you're interested in two stocks in the same industry, which one do you buy?  In just one minute, learn how the P/E ratio can help you decide.",1922307769001,https://cdn.etrade.net/1/7d/images/videoThumbs/105x80-what-is-a-PE-ratio.jpg
Stock Analysis,Basic,Charts and Patterns,E*TRADE Securities,0:18:33,Understand the charts and patterns you see on your screen everyday. Pro Market Advisors will help you identify support and resistance points; manage your exit strategy correctly with stop orders and how to use position sizing for risk management.,1986761435001,https://cdn.etrade.net/1/7d/images/videoThumbs/105x80-charts-and-patterns.jpg
Stock Analysis,Intermediate,Identifying Trends,E*TRADE Securities,0:17:55,Stocks tell a story if you know what to look for.  Learn to how to identify simple technical patterns.,1553914048001,https://cdn.etrade.net/1/7d/images/videoThumbs/105x80-identifying-trends.jpg
Options Trading,Basic,Why Trade Options,E*TRADE Securities,0:02:26,"How do you make money in the stock market? In this 3-minute video, we'll tell you how options can help you manage risk and create strategies for virtually any market condition's up, down, or sideways. If you've been thinking about options trading, this video is a great place to start.",1400176909001,https://cdn.etrade.net/1/1d/images/videoThumbs/whytradeoptions6_June01.gif
Options Trading,Basic,Options Trading for Beginners,E*TRADE Securities,0:09:37,"Before you place your first options trade, let us teach you about the unique language, risks, and benefits of options trading.",1402050062001,https://cdn.etrade.net/1/1d/images/videoThumbs/options_trading_for_beginners.gif
Options Trading,Basic,Options Fundamentals: Introduction,Options Industry Council,0:08:56,Review the fundamental of options before you start trading. This seven part series will help you understand basic concepts and strategies.,1402452764001,https://cdn.etrade.net/1/1d/images/videoThumbs/options-fundamentals-introduction.gif
Options Trading,Basic,Options Fundamentals: Terminology,Options Industry Council,0:11:42,Review the fundamental of options before you start trading. This seven part series will help you understand basic concepts and strategies.,1402547859001,https://cdn.etrade.net/1/1d/images/videoThumbs/options-fundamentals-terminology.gif
Options Trading,Basic,Options Fundamentals: Options Series,Options Industry Council,0:11:58,Review the fundamental of options before you start trading. This seven part series will help you understand basic concepts and strategies.,1402531929001,https://cdn.etrade.net/1/1d/images/videoThumbs/options-fundamentals-options-series.gif
Options Trading,Basic,Options Fundamentals: Buying Calls & Puts,Options Industry Council,0:09:46,Review the fundamental of options before you start trading. This seven part series will help you understand basic concepts and strategies.,1402416430001,https://cdn.etrade.net/1/1d/images/videoThumbs/options-fundamentals-buying-calls-and-puts.gif
Options Trading,Basic,Options Fundamentals: Options Pricing,Options Industry Council,0:15:01,Review the fundamental of options before you start trading. This seven part series will help you understand basic concepts and strategies.,1402480075001,https://cdn.etrade.net/1/1d/images/videoThumbs/options-fundamentals-options-pricing.gif
Options Trading,Basic,Options Fundamentals: Covered Call,Options Industry Council,0:09:57,Review the fundamental of options before you start trading. This seven part series will help you understand basic concepts and strategies.,1402420081001,https://cdn.etrade.net/1/1d/images/videoThumbs/options-fundamentals-covered-call.gif
Options Trading,Basic,Options Fundamentals: Covered Call Return Calculations,Options Industry Council,0:09:11,Review the fundamental of options before you start trading. This seven part series will help you understand basic concepts and strategies.,1402420094001,https://cdn.etrade.net/1/1d/images/videoThumbs/options-fundamentals-covered-call-return-calculator2.gif
Options Trading,Basic,Buying Call Options,Options Industry Council,0:07:42,"Perhaps the most widely used options strategy for options investors, OIC instructor Dan Passarelli digs deep to give you a better understanding on buying call options by detailing profit potential, maximum risk, and how to choose a strike price to meet your trading objective.",1404739647001,https://cdn.etrade.net/1/1d/images/videoThumbs/OT-BAS-V-1_buying_call_options.gif
Options Trading,Basic,Buying Put Options,Options Industry Council,0:07:49,"Often described as a better way to implement a bearish opinion, OIC instructor Dan Passarelli will reveal why as he reviews this strategy's profit potential, maximum risk, primary benefits, and how to choose a strike price to meet your trading objective.",1389040646001,https://cdn.etrade.net/1/1d/images/videoThumbs/OT-BAS-V-2_buying_put_options.gif
Options Trading,Intermediate,Selling Puts,Options Industry Council,0:14:16,"Often misunderstood as a risky strategy, selling puts can be a strategic way to buy stock. This video will teach you how to use this strategy appropriately.",1414297639001,https://cdn.etrade.net/1/1d/images/videoThumbs/OT-INT-V-2_Selling_Puts.gif
Options Trading,Intermediate,Straddles & Strangles,Options Industry Council,0:12:24,"Born to exploit uncertainty and volatility, learn how to use straddles and strangles to prepare for the next big move in your stock, irregardless of direction.",1409646544001,https://cdn.etrade.net/1/1d/images/videoThumbs/OT-INT-V-3_Straddles_Strangles_.gif
Options Trading,Advanced,Diagonal Spreads,Options Industry Council,0:06:42,Learn why diagonal spreads matter to a directional trader. OIC Instructor Alan Grigoletto explains what they are and how to use them in both bullish and bearish situations.,1379982015001,https://cdn.etrade.net/1/1d/images/videoThumbs/OT-ADV-V-1_Diagonal_Spreads_.gif
Options Trading,Advanced,Intro to Bear Put Spreads,Options Industry Council,0:09:26,Learn when to use bull and bear spreads and why these strategies may be less risky than buying calls and puts alone.,1409648324001,https://cdn.etrade.net/1/1d/images/videoThumbs/introtospreads_p6.gif
Options Trading,Advanced,Intro to Bull Put Spreads,Options Industry Council,0:05:43,Learn when to use bull and bear spreads and why these strategies may be less risky than buying calls and puts alone.,1409429228001,https://cdn.etrade.net/1/1d/images/videoThumbs/introtospreads_p7.gif
Options Trading,Advanced,Intro to Comparing Spreads,Options Industry Council,0:03:05,Learn when to use bull and bear spreads and why these strategies may be less risky than buying calls and puts alone.,1409429222001,https://cdn.etrade.net/1/1d/images/videoThumbs/introtospreads_p8.gif
Options Trading,Advanced,Long Call vs. Debit & Credit Spreads,Options Industry Council,0:05:38,"If buying stock or buying calls are the only ways you know how to trade a bullish strategy, then watch this podcast to learn new ways to be bullish with less risk. Various bullish options strategies will be reviewed and compared in different trading situations.",1401434647001,https://cdn.etrade.net/1/1d/images/videoThumbs/OT-ADV-V-3_Long_Callvs_DebitCredit_Spreads.gif
Options Trading,Advanced,Options Income Strategies Part 1,Options Industry Council,0:07:32,Sell covered calls or sell puts? Learn the difference and understand the risk of each strategy before you decide to use options to generate income.,1288142098001,https://cdn.etrade.net/1/1d/images/videoThumbs/OT-ADV-V-6_Options_Income_Strategies_P.gif
Options Trading,Advanced,Stock & Options Spreads,Options Industry Council,0:10:22,Stock and options can work together if you understand how to put the pieces together. This video will review strategies that include stock and options and discuss how and when to use them.,1409646529001,https://cdn.etrade.net/1/1d/images/videoThumbs/OT-ADV-V-8_Stock-Options_Spreads_.gif
Options Trading,Basic,3 Common Mistakes Options Traders Make,E*TRADE Securities,0:04:56,"When you trade and invest with options, it's good to know about the common mistakes made by other traders.  If you can avoid these mistakes, you should be better able to reach your financial goals.  Shawn Howell of Pro Market Advisors introduces some advantages and trade-offs of options trading and then shows you three common mistakes to avoid.",2307938253001,https://cdn.etrade.net/1/7d/images/videoThumbs/105x80-3-common-mistakes.jpg
Options Trading,Intermediate,ETF Trading with Options,E*TRADE Securities,0:04:07,"If you trade ETFs and wondered how options can help you manage risk and generate income, then join The Pro Market Advisors as they describe new strategies.",1389364858001,https://cdn.etrade.net/1/7d/images/videoThumbs/105x80-etf-trading-with-options.jpg
Options Trading,Advanced,Weekly Option for Traders,E*TRADE Securities,1:03:37,"Find out why Weeklys on select stocks, indexes, and ETFs are growing fast. Pro Market Advisors will explain how traders are using weekly options to improve their options trading.",1403682630001,https://cdn.etrade.net/1/7d/images/videoThumbs/105x80-weekly-option-for-traders.jpg
Futures Trading,Basic,Understanding Futures Markets,Dan Gramza,0:08:59,"Futures markets play a vital role in bringing many of the products we need to market. Learn how futures markets work, and how investors and traders use futures to diversify their portfolios.",1402818197001,https://cdn.etrade.net/1/1d/images/videoThumbs/understanding-futures-markets-edu-4858-sv.gif
Futures Trading,Intermediate,Why Smart Money Trades Futures,"David Lerman, CME Group",1:00:54,"David Lerman of CME group will share ten smart reasons why traders should consider futures. David will also explain key trading strategies, as well as the similarities and differences between equity and futures trading.",1400224942001,https://cdn.etrade.net/1/1d/images/videoThumbs/FT-INT-WC-1_Why_Smart_Money_Trades_Futures_.gif
Futures Trading,Advanced,What the Futures Markets Tell Traders,"Dan Gramza, Gramza Capital Management",1:04:17,"Dan Gramza will show stock traders how to take advantage of the information the futures markets give and how to use it to identify stock, options, and futures trading opportunities.",1404361098001,https://cdn.etrade.net/1/1d/images/videoThumbs/FT-ADV-WC-5-what-the-futures-market-tells-traders-webcast.gif
