-- Merging decision tree log ---
manifest
ADDED from /Users/spidugu/Documents/etrade-new/common/uiwidgets/actionsheet/src/main/AndroidManifest.xml:2:1-65
INJECTED from /Users/spidugu/Documents/etrade-new/common/uiwidgets/actionsheet/src/main/AndroidManifest.xml:2:1-65
INJECTED from /Users/spidugu/Documents/etrade-new/common/uiwidgets/actionsheet/src/main/AndroidManifest.xml:2:1-65
	package
		ADDED from /Users/spidugu/Documents/etrade-new/common/uiwidgets/actionsheet/src/main/AndroidManifest.xml:2:11-63
		INJECTED from /Users/spidugu/Documents/etrade-new/common/uiwidgets/actionsheet/src/main/AndroidManifest.xml
		INJECTED from /Users/spidugu/Documents/etrade-new/common/uiwidgets/actionsheet/src/main/AndroidManifest.xml
	xmlns:android
		ADDED from /Users/spidugu/Documents/etrade-new/common/uiwidgets/actionsheet/src/main/AndroidManifest.xml:2:1-65
uses-sdk
INJECTED from /Users/spidugu/Documents/etrade-new/common/uiwidgets/actionsheet/src/main/AndroidManifest.xml reason: use-sdk injection requested
INJECTED from /Users/spidugu/Documents/etrade-new/common/uiwidgets/actionsheet/src/main/AndroidManifest.xml
INJECTED from /Users/spidugu/Documents/etrade-new/common/uiwidgets/actionsheet/src/main/AndroidManifest.xml
INJECTED from /Users/spidugu/Documents/etrade-new/common/uiwidgets/actionsheet/src/main/AndroidManifest.xml
INJECTED from /Users/spidugu/Documents/etrade-new/common/uiwidgets/actionsheet/src/main/AndroidManifest.xml
	android:targetSdkVersion
		INJECTED from /Users/spidugu/Documents/etrade-new/common/uiwidgets/actionsheet/src/main/AndroidManifest.xml
		ADDED from /Users/spidugu/Documents/etrade-new/common/uiwidgets/actionsheet/src/main/AndroidManifest.xml
		INJECTED from /Users/spidugu/Documents/etrade-new/common/uiwidgets/actionsheet/src/main/AndroidManifest.xml
	android:minSdkVersion
		INJECTED from /Users/spidugu/Documents/etrade-new/common/uiwidgets/actionsheet/src/main/AndroidManifest.xml
		ADDED from /Users/spidugu/Documents/etrade-new/common/uiwidgets/actionsheet/src/main/AndroidManifest.xml
		INJECTED from /Users/spidugu/Documents/etrade-new/common/uiwidgets/actionsheet/src/main/AndroidManifest.xml
